<svg width="25" height="26" viewBox="0 0 25 26" fill="none" xmlns="http://www.w3.org/2000/svg">
<path d="M7.96791 25.5787H2.68462C1.22621 25.5787 0.0429688 24.3955 0.0429688 22.9371V3.56502C0.0429688 2.10661 1.22621 0.92337 2.68462 0.92337H7.96791C9.42632 0.92337 10.6096 2.10661 10.6096 3.56502V22.9371C10.6096 24.3955 9.42632 25.5787 7.96791 25.5787ZM24.6983 22.9371V3.56502C24.6983 2.10661 23.5151 0.92337 22.0567 0.92337H16.7734C15.315 0.92337 14.1318 2.10661 14.1318 3.56502V22.9371C14.1318 24.3955 15.315 25.5787 16.7734 25.5787H22.0567C23.5151 25.5787 24.6983 24.3955 24.6983 22.9371Z" fill="#3682F7"/>
</svg>
