<svg width="19" height="25" viewBox="0 0 19 25" fill="none" xmlns="http://www.w3.org/2000/svg">
<path d="M16.495 3.53456H12.7607C12.7607 1.88681 11.421 0.547142 9.77329 0.547142C8.12554 0.547142 6.78587 1.88681 6.78587 3.53456H3.0516C1.81462 3.53456 0.811035 4.53815 0.811035 5.77513V22.2059C0.811035 23.4429 1.81462 24.4465 3.0516 24.4465H16.495C17.732 24.4465 18.7355 23.4429 18.7355 22.2059V5.77513C18.7355 4.53815 17.732 3.53456 16.495 3.53456ZM5.29216 20.3388C4.67134 20.3388 4.17188 19.8393 4.17188 19.2185C4.17188 18.5977 4.67134 18.0982 5.29216 18.0982C5.91299 18.0982 6.41245 18.5977 6.41245 19.2185C6.41245 19.8393 5.91299 20.3388 5.29216 20.3388ZM5.29216 15.8577C4.67134 15.8577 4.17188 15.3582 4.17188 14.7374C4.17188 14.1166 4.67134 13.6171 5.29216 13.6171C5.91299 13.6171 6.41245 14.1166 6.41245 14.7374C6.41245 15.3582 5.91299 15.8577 5.29216 15.8577ZM5.29216 11.3765C4.67134 11.3765 4.17188 10.8771 4.17188 10.2563C4.17188 9.63543 4.67134 9.13597 5.29216 9.13597C5.91299 9.13597 6.41245 9.63543 6.41245 10.2563C6.41245 10.8771 5.91299 11.3765 5.29216 11.3765ZM9.77329 2.41428C10.3941 2.41428 10.8936 2.91374 10.8936 3.53456C10.8936 4.15538 10.3941 4.65484 9.77329 4.65484C9.15247 4.65484 8.65301 4.15538 8.65301 3.53456C8.65301 2.91374 9.15247 2.41428 9.77329 2.41428ZM15.7481 19.5919C15.7481 19.7973 15.5801 19.9654 15.3747 19.9654H8.65301C8.44762 19.9654 8.27958 19.7973 8.27958 19.5919V18.8451C8.27958 18.6397 8.44762 18.4717 8.65301 18.4717H15.3747C15.5801 18.4717 15.7481 18.6397 15.7481 18.8451V19.5919ZM15.7481 15.1108C15.7481 15.3162 15.5801 15.4842 15.3747 15.4842H8.65301C8.44762 15.4842 8.27958 15.3162 8.27958 15.1108V14.364C8.27958 14.1586 8.44762 13.9905 8.65301 13.9905H15.3747C15.5801 13.9905 15.7481 14.1586 15.7481 14.364V15.1108ZM15.7481 10.6297C15.7481 10.8351 15.5801 11.0031 15.3747 11.0031H8.65301C8.44762 11.0031 8.27958 10.8351 8.27958 10.6297V9.88283C8.27958 9.67744 8.44762 9.5094 8.65301 9.5094H15.3747C15.5801 9.5094 15.7481 9.67744 15.7481 9.88283V10.6297Z" fill="#A5A5A5"/>
</svg>
