<svg width="13" height="15" viewBox="0 0 13 15" fill="none" xmlns="http://www.w3.org/2000/svg">
<path d="M0 13.5938C0 14.3701 0.623884 15 1.39286 15H11.6071C12.3761 15 13 14.3701 13 13.5938V5.625H0V13.5938ZM1.85714 7.96875C1.85714 7.71094 2.06607 7.5 2.32143 7.5H5.10714C5.3625 7.5 5.57143 7.71094 5.57143 7.96875V10.7812C5.57143 11.0391 5.3625 11.25 5.10714 11.25H2.32143C2.06607 11.25 1.85714 11.0391 1.85714 10.7812V7.96875ZM11.6071 1.875H10.2143V0.46875C10.2143 0.210938 10.0054 0 9.75 0H8.82143C8.56607 0 8.35714 0.210938 8.35714 0.46875V1.875H4.64286V0.46875C4.64286 0.210938 4.43393 0 4.17857 0H3.25C2.99464 0 2.78571 0.210938 2.78571 0.46875V1.875H1.39286C0.623884 1.875 0 2.50488 0 3.28125V4.6875H13V3.28125C13 2.50488 12.3761 1.875 11.6071 1.875Z" fill="black"/>
</svg>
