<svg xmlns="http://www.w3.org/2000/svg" xmlns:xlink="http://www.w3.org/1999/xlink" width="18" height="15" viewBox="0 0 18 15">
  <defs>
    <clipPath id="clip-path">
      <rect id="Rectángulo_84" data-name="Rectángulo 84" width="18" height="15" rx="7.5" transform="translate(-0.368 -0.479)" fill="#3682f7"/>
    </clipPath>
  </defs>
  <g id="Enmascarar_grupo_1" data-name="Enmascarar grupo 1" transform="translate(0.368 0.479)" clip-path="url(#clip-path)">
    <g id="edit" transform="translate(1.35 0.247)">
      <g id="Grupo_47" data-name="Grupo 47" transform="translate(0 0.997)">
        <g id="Grupo_46" data-name="Grupo 46">
          <path id="Trazado_52" data-name="Trazado 52" d="M11.46,49.912a.5.5,0,0,0-.5.5v4.983a.5.5,0,0,1-.5.5H1.495a.5.5,0,0,1-.5-.5V45.428a.5.5,0,0,1,.5-.5H7.474a.5.5,0,1,0,0-1H1.495A1.5,1.5,0,0,0,0,45.428v9.965a1.5,1.5,0,0,0,1.495,1.495h8.969a1.5,1.5,0,0,0,1.495-1.495V50.411A.5.5,0,0,0,11.46,49.912Z" transform="translate(0 -43.933)" fill="#3682f7"/>
        </g>
      </g>
      <g id="Grupo_49" data-name="Grupo 49" transform="translate(2.99 0)">
        <g id="Grupo_48" data-name="Grupo 48">
          <path id="Trazado_53" data-name="Trazado 53" d="M142.2.564a1.907,1.907,0,0,0-2.7,0l-6.563,6.563a.5.5,0,0,0-.12.195l-1,2.99a.5.5,0,0,0,.472.656.506.506,0,0,0,.157-.025l2.99-1a.5.5,0,0,0,.195-.121L142.2,3.261A1.907,1.907,0,0,0,142.2.564Z" transform="translate(-131.797 -0.005)" fill="#3682f7"/>
        </g>
      </g>
    </g>
  </g>
</svg>
