<svg xmlns="http://www.w3.org/2000/svg" width="35.954" height="49.318" viewBox="0 0 35.954 49.318">
  <g id="car" transform="translate(-60.218)">
    <g id="Grupo_34" data-name="Grupo 34" transform="translate(60.218)">
      <g id="Grupo_33" data-name="Grupo 33">
        <path id="Trazado_42" data-name="Trazado 42" d="M124.023,241.861a2.2,2.2,0,1,0,2.2,2.2A2.2,2.2,0,0,0,124.023,241.861Z" transform="translate(-114.989 -215.022)" fill="#fff"/>
        <path id="Trazado_43" data-name="Trazado 43" d="M148.214,9.48h16.423V4.9a1.421,1.421,0,0,0-1.429-1.413h-2.554a.893.893,0,0,1-.87-.715,3.492,3.492,0,0,0-6.84.022.9.9,0,0,1-.864.693H149.59a1.372,1.372,0,0,0-1.377,1.368c0,.015,0,.03,0,.044Z" transform="translate(-138.448)" fill="#fff"/>
        <path id="Trazado_44" data-name="Trazado 44" d="M117.218,342.868h7.768v-7.435h-7.768Zm1.525-4.159h0a.888.888,0,0,1,1.247-.142l.644.512,1.522-1.739a.888.888,0,1,1,1.336,1.169l-2.08,2.376a.888.888,0,0,1-1.221.11l-1.307-1.04A.888.888,0,0,1,118.743,338.709Z" transform="translate(-110.893 -298.211)" fill="#fff"/>
        <path id="Trazado_45" data-name="Trazado 45" d="M281.775,241.861a2.2,2.2,0,1,0,2.2,2.2h0A2.2,2.2,0,0,0,281.775,241.861Z" transform="translate(-255.236 -215.022)" fill="#fff"/>
        <path id="Trazado_46" data-name="Trazado 46" d="M93.6,67.433H88.182v2.921a.862.862,0,0,1-.872.852H69.042a.814.814,0,0,1-.835-.792c0-.02,0-.04,0-.06V67.433H62.786a2.612,2.612,0,0,0-2.568,2.631v36.668a2.53,2.53,0,0,0,2.524,2.536H93.6a2.53,2.53,0,0,0,2.568-2.492q0-.022,0-.044V70.064A2.612,2.612,0,0,0,93.6,67.433ZM76.086,105.5a.888.888,0,0,1-.888.888H65.655a.888.888,0,0,1-.888-.888v-9.21a.888.888,0,0,1,.888-.888H75.2a.888.888,0,0,1,.888.888Zm14.63-1.443H79.19a.888.888,0,1,1,0-1.775H90.716a.888.888,0,0,1,0,1.775ZM78.3,98.5a.888.888,0,0,1,.888-.888h6.892a.888.888,0,0,1,0,1.775H79.19A.888.888,0,0,1,78.3,98.5ZM94.4,86.968a3.22,3.22,0,0,1-3.183,3.214h-.655a3.973,3.973,0,0,1-7.6,0h-9.9a3.973,3.973,0,0,1-7.6,0h-.274a3.22,3.22,0,0,1-3.183-3.214V85.037a3.177,3.177,0,0,1,2.341-3.054l5-1.359,2.979-3.9A3.932,3.932,0,0,1,75.446,75.2H84.27a3.89,3.89,0,0,1,3.336,1.82l2.316,3.669,2.609,1.185A3.184,3.184,0,0,1,94.4,84.764Z" transform="translate(-60.218 -59.95)" fill="#fff"/>
        <path id="Trazado_47" data-name="Trazado 47" d="M120.246,159.949l-2.855-1.292a.873.873,0,0,1-.385-.33l-2.456-3.909a2.123,2.123,0,0,0-1.83-.987H103.9a2.148,2.148,0,0,0-1.719.825l-3.162,4.124a.89.89,0,0,1-.473.318l-5.29,1.445a1.405,1.405,0,0,0-1.034,1.348v1.931a1.442,1.442,0,0,0,1.407,1.438h.151a3.973,3.973,0,0,1,7.848,0h9.657a3.973,3.973,0,0,1,7.848,0h.533a1.443,1.443,0,0,0,1.407-1.438v-2.2A1.4,1.4,0,0,0,120.246,159.949Z" transform="translate(-88.667 -136.404)" fill="#fff"/>
      </g>
    </g>
  </g>
</svg>
