<svg id="car-repair" xmlns="http://www.w3.org/2000/svg" width="63.719" height="50" viewBox="0 0 63.719 50">
  <g id="Grupo_13" data-name="Grupo 13" transform="translate(0 0)">
    <g id="Grupo_12" data-name="Grupo 12">
      <path id="Trazado_23" data-name="Trazado 23" d="M272.58,195.164a4.839,4.839,0,0,0-4.122-2.284h-9.687v8.161H276.26Z" transform="translate(-221.827 -172.176)" fill="#c1c1c1"/>
      <path id="Trazado_24" data-name="Trazado 24" d="M145.047,201.041V192.88h-7.708a4.893,4.893,0,0,0-3.87,1.919l-4.753,6.243Z" transform="translate(-110.328 -172.176)" fill="#c1c1c1"/>
      <path id="Trazado_25" data-name="Trazado 25" d="M82.1,268.438l-5.627-2.555-.005,0H36.861a1.25,1.25,0,0,1-.186.065l-10.418,2.849a3.383,3.383,0,0,0-2.487,3.243v3.809a3.382,3.382,0,0,0,3.388,3.35h.835a7.214,7.214,0,0,1,14.377,0H64.735a7.214,7.214,0,0,1,14.377,0H80.7a3.382,3.382,0,0,0,3.389-3.35V271.5A3.384,3.384,0,0,0,82.1,268.438Z" transform="translate(-20.367 -234.766)" fill="#c1c1c1"/>
      <path id="Trazado_26" data-name="Trazado 26" d="M74.049,328.785a4.94,4.94,0,1,0,4.939,4.94h0A4.944,4.944,0,0,0,74.049,328.785Z" transform="translate(-59.233 -288.665)" fill="#c1c1c1"/>
      <path id="Trazado_27" data-name="Trazado 27" d="M331.12,328.785a4.94,4.94,0,1,0,4.94,4.94A4.94,4.94,0,0,0,331.12,328.785Z" transform="translate(-279.585 -288.665)" fill="#c1c1c1"/>
      <path id="Trazado_28" data-name="Trazado 28" d="M75.117,60.185a4.124,4.124,0,0,0,.77,2.461,1.878,1.878,0,0,1,.409,1.226,1.145,1.145,0,1,0,2.291,0,4.125,4.125,0,0,0-.77-2.461,2.043,2.043,0,0,1,0-2.453,4.314,4.314,0,0,0,0-4.92,2.036,2.036,0,0,1,0-2.448,4.116,4.116,0,0,0,.77-2.458,1.145,1.145,0,1,0-2.291,0,1.872,1.872,0,0,1-.408,1.223,4.31,4.31,0,0,0,0,4.918,2.041,2.041,0,0,1,0,2.451A4.123,4.123,0,0,0,75.117,60.185Z" transform="translate(-64.381 -47.987)" fill="#c1c1c1"/>
      <path id="Trazado_29" data-name="Trazado 29" d="M112.55,82.214a4.125,4.125,0,0,0,.77,2.461,1.877,1.877,0,0,1,.409,1.226,1.145,1.145,0,0,0,2.291,0,4.126,4.126,0,0,0-.77-2.461,2.042,2.042,0,0,1,0-2.452,4.314,4.314,0,0,0,0-4.921,1.874,1.874,0,0,1-.409-1.225,1.145,1.145,0,1,0-2.291,0,4.121,4.121,0,0,0,.77,2.46,2.04,2.04,0,0,1,0,2.451A4.125,4.125,0,0,0,112.55,82.214Z" transform="translate(-96.464 -70.016)" fill="#c1c1c1"/>
      <path id="Trazado_30" data-name="Trazado 30" d="M37.683,82.214a4.125,4.125,0,0,0,.77,2.461,1.877,1.877,0,0,1,.409,1.226,1.145,1.145,0,1,0,2.291,0,4.126,4.126,0,0,0-.77-2.461,2.042,2.042,0,0,1,0-2.453,4.315,4.315,0,0,0,0-4.92,1.875,1.875,0,0,1-.409-1.225,1.145,1.145,0,1,0-2.291,0,4.12,4.12,0,0,0,.77,2.46,2.041,2.041,0,0,1,0,2.451A4.124,4.124,0,0,0,37.683,82.214Z" transform="translate(-32.287 -70.016)" fill="#c1c1c1"/>
      <path id="Trazado_31" data-name="Trazado 31" d="M5.625,192.756l9.916,7.065a1.145,1.145,0,0,0,1.331-1.865h0L6.953,190.89a4.26,4.26,0,0,0-5.3.265L.39,192.264A1.146,1.146,0,1,0,1.9,193.988l1.268-1.109A1.978,1.978,0,0,1,5.625,192.756Z" transform="translate(0.001 -169.789)" fill="#c1c1c1"/>
    </g>
  </g>
</svg>
